\relax 
\providecommand\babel@aux[2]{}
\@nameuse{bbl@beforestart}
\catcode `:\active 
\catcode `;\active 
\catcode `!\active 
\catcode `?\active 
\abx@aux@refcontext{nty/global//global/global}
\providecommand \oddpage@label [2]{}
\babel@aux{french}{}
\@writefile{toc}{\contentsline {section}{\numberline {I}Mise en place}{1}{}\protected@file@percent }
\@writefile{toc}{\contentsline {subsection}{\numberline {1}Programme minimal}{1}{}\protected@file@percent }
\@writefile{toc}{\contentsline {subsection}{\numberline {2}Compilation en ligne de commande}{1}{}\protected@file@percent }
\@writefile{toc}{\contentsline {subsection}{\numberline {3}Compilation séparée}{1}{}\protected@file@percent }
\@writefile{toc}{\contentsline {subsection}{\numberline {4}Compilation avec un makefile}{2}{}\protected@file@percent }
\@writefile{toc}{\contentsline {section}{\numberline {II}Mise en pratique des notions de base}{3}{}\protected@file@percent }
\@writefile{toc}{\contentsline {subsection}{\numberline {1}Exercices}{3}{}\protected@file@percent }
\@writefile{toc}{\contentsline {subsubsection}{\numberline {i}Nombre aléatoire}{3}{}\protected@file@percent }
\@writefile{toc}{\contentsline {subsubsection}{\numberline {ii}Affichage d'un tableau}{3}{}\protected@file@percent }
\@writefile{toc}{\contentsline {subsubsection}{\numberline {iii}Recherche du maximum}{3}{}\protected@file@percent }
\@writefile{toc}{\contentsline {section}{\numberline {III}Rappels sur les pointeurs}{4}{}\protected@file@percent }
\@writefile{toc}{\contentsline {subsection}{\numberline {1}Exemple simple d'un pointeur sur une variable}{4}{}\protected@file@percent }
\@writefile{toc}{\contentsline {subsection}{\numberline {2}Exercices}{4}{}\protected@file@percent }
\@writefile{toc}{\contentsline {subsubsection}{\numberline {i}Échange}{4}{}\protected@file@percent }
\@writefile{toc}{\contentsline {subsubsection}{\numberline {ii}Pointeur sur un tableau}{4}{}\protected@file@percent }
\@writefile{toc}{\contentsline {subsubsection}{\numberline {iii}Modification d'un tableau passé par pointeur}{5}{}\protected@file@percent }
\@writefile{toc}{\contentsline {section}{\numberline {IV}Tableaux - Allocation dynamique}{6}{}\protected@file@percent }
\@writefile{toc}{\contentsline {subsection}{\numberline {1}Exercice}{6}{}\protected@file@percent }
\@writefile{toc}{\contentsline {subsubsection}{\numberline {i}Tableaux d'entiers aléatoires}{6}{}\protected@file@percent }
\@writefile{toc}{\contentsline {subsubsection}{\numberline {ii}Fonction argmax}{6}{}\protected@file@percent }
\@writefile{toc}{\contentsline {subsubsection}{\numberline {iii}Tri croissant}{7}{}\protected@file@percent }
\@writefile{toc}{\contentsline {subsubsection}{\numberline {iv}Tableaux 2D d'entiers aléatoires}{7}{}\protected@file@percent }
\@writefile{toc}{\contentsline {subsubsection}{\numberline {v}Libérer la mémoire}{7}{}\protected@file@percent }
\@writefile{toc}{\contentsline {section}{\numberline {V}Structures}{7}{}\protected@file@percent }
\@writefile{toc}{\contentsline {subsection}{\numberline {1}Exercice: un type Pixel}{7}{}\protected@file@percent }
\@writefile{toc}{\contentsline {subsubsection}{\numberline {i}Addition}{7}{}\protected@file@percent }
\@writefile{toc}{\contentsline {subsubsection}{\numberline {ii}Une image}{7}{}\protected@file@percent }
\newlabel{LastPage}{{}{7}}
\xdef\lastpage@lastpage{7}
\gdef\lastpage@lastpageHy{}
\gdef\minted@oldcachelist{,
  default.pygstyle,
  4A386FF5B97D062E5BA63142830676FC776160149CDF0B6730A0E395D86F402C.pygtex,
  319C9AB34CED7A05607FDB4E041FA206C035ACC4500CD08A75FECD803B1C5E9A.pygtex,
  A001C4AE569F2AFDEDA6594936738E5AC035ACC4500CD08A75FECD803B1C5E9A.pygtex,
  D6C0D659999F63DB7AF7C5B7620388FAC035ACC4500CD08A75FECD803B1C5E9A.pygtex,
  7C897C2167F77748644493434066AE04C035ACC4500CD08A75FECD803B1C5E9A.pygtex,
  996D5EA5EA98A32F66C2ECEA10E17D75C035ACC4500CD08A75FECD803B1C5E9A.pygtex,
  319C9AB34CED7A05607FDB4E041FA206C035ACC4500CD08A75FECD803B1C5E9A.pygtex,
  FA4F6FEFA3E0E44ABDE52C4151EAD7E7C035ACC4500CD08A75FECD803B1C5E9A.pygtex,
  319C9AB34CED7A05607FDB4E041FA206C035ACC4500CD08A75FECD803B1C5E9A.pygtex,
  684C45B6C7BAA39A594BDE8B5406E1A7C035ACC4500CD08A75FECD803B1C5E9A.pygtex,
  047E152EA1F021FE843D6EF4C6B91144C035ACC4500CD08A75FECD803B1C5E9A.pygtex,
  A5E3A4C3C927135DC65B7801CD664C47C035ACC4500CD08A75FECD803B1C5E9A.pygtex,
  319C9AB34CED7A05607FDB4E041FA206C035ACC4500CD08A75FECD803B1C5E9A.pygtex,
  85340DED009E9B132E22AFDB228D87AAC035ACC4500CD08A75FECD803B1C5E9A.pygtex,
  319C9AB34CED7A05607FDB4E041FA206C035ACC4500CD08A75FECD803B1C5E9A.pygtex,
  C134EF67CB4E22E057DD645BB1B5DC061727B37DCE52A9625A2B83E02D51FBB6.pygtex,
  81BD5A0586DB85587EF75F8A79B354D2C035ACC4500CD08A75FECD803B1C5E9A.pygtex,
  F54139B5C3DE7B2656B2E0379BEFF911C035ACC4500CD08A75FECD803B1C5E9A.pygtex,
  CFF8B4152B5CBA12EF7EBBFED7E5872637DF34A47C2BCE2A12A48C4B3BFCE890.pygtex,
  A16FA9635ABC982EBCE37F97A82D7A58C035ACC4500CD08A75FECD803B1C5E9A.pygtex,
  D538D8EF3481D1FD0238252AFCCF1641C035ACC4500CD08A75FECD803B1C5E9A.pygtex,
  9F5B0D84B761F443FCEB088C53B8BBE11727B37DCE52A9625A2B83E02D51FBB6.pygtex,
  558127F67BF65940B58E52D6F7A5C3641727B37DCE52A9625A2B83E02D51FBB6.pygtex,
  ED2F0838EF44C62A52405D3704EC10CD1727B37DCE52A9625A2B83E02D51FBB6.pygtex,
  F14F90AC8AEEF0BCEA5FF976E2E4C543033A755C319221A5A07AB33D580F8B6A.pygtex,
  0443ABB940A32E8208FC6F98930884DC1727B37DCE52A9625A2B83E02D51FBB6.pygtex,
  1C6A5304DAAD560B6DD642886DB55F5088510B214E66064D835427CB0C2DB750.pygtex,
  81A6B504DF2E4F0B7F5AC811BD3B09A31727B37DCE52A9625A2B83E02D51FBB6.pygtex,
  1DB3DFE6E8BA7D35B6221EFE9664C96B1727B37DCE52A9625A2B83E02D51FBB6.pygtex,
  987D303CFB345C0C2313E0B317A71D8B1727B37DCE52A9625A2B83E02D51FBB6.pygtex,
  C5CDE952C4ADBF35727AAD2ADD5C7B57FDC253D12469C79CCCEBABE323A21994.pygtex,
  3B02CA0CB7C08A4E5E9B65C211B772FA1727B37DCE52A9625A2B83E02D51FBB6.pygtex,
  71B7DBDA93D9E9423852E3FA127221691727B37DCE52A9625A2B83E02D51FBB6.pygtex,
  623D381316FC33ABC09E97327874178B1727B37DCE52A9625A2B83E02D51FBB6.pygtex,
  61FBEF6C7A136A1BEE6955FADB17D31E1727B37DCE52A9625A2B83E02D51FBB6.pygtex,
  498BA569C6063B5974814F6FF4161C6B1727B37DCE52A9625A2B83E02D51FBB6.pygtex,
  D7EE9C444A732042C5261EC9E029FB23C035ACC4500CD08A75FECD803B1C5E9A.pygtex,
  E873F995A5C4FFD68BEB88F924B080611727B37DCE52A9625A2B83E02D51FBB6.pygtex,
  233B4E2AFC4C73E62ED100AAA8E0F27E1727B37DCE52A9625A2B83E02D51FBB6.pygtex,
  2048700C1EBEEDF600EC8CD9B1A4C9221727B37DCE52A9625A2B83E02D51FBB6.pygtex}
\abx@aux@read@bbl@mdfivesum{nobblfile}
\gdef \@abspage@last{7}
